
{

  "copper" : {
    "cost": 0,
    "pcost": 0,
    "supply": 60,  
    "type" : ["treasure"],
    "actions": 0,
    "cards": 0, 
    "buys": 0, 
    "money": 0,
    "v tokens": 0,
    "v points": 0,
    "treasure": 1
  },

  "silver" : {
    "cost": 3,
    "pcost": 0,
    "supply": 40,  
    "type" : ["treasure"],
    "actions": 0,
    "cards": 0, 
    "buys": 0, 
    "money": 0,
    "v tokens": 0,
    "v points": 0,
    "treasure": 2
  },

  "gold" : {
    "cost": 6,
    "pcost": 0,
    "supply": 30,  
    "type" : ["treasure"],
    "actions": 0,
    "cards": 0, 
    "buys": 0, 
    "money": 0,
    "v tokens": 0,
    "v points": 0,
    "treasure": 3
  },

  "platinum" : {
    "cost": 9,
    "pcost": 0,
    "supply": 12,  
    "type" : ["treasure"],
    "actions": 0,
    "cards": 0, 
    "buys": 0, 
    "money": 0,
    "v tokens": 0,
    "v points": 0,
    "treasure": 5
  },

  "estate" : {
    "cost": 2,
    "pcost": 0,
    "supply": 24,  
    "type" : ["victory"],
    "actions": 0,
    "cards": 0, 
    "buys": 0, 
    "money": 0,
    "v tokens": 0,
    "v points": 1,
    "treasure": 0
  },

  "duchy" : {
    "cost": 5,
    "pcost": 0,
    "supply": 12,  
    "type" : ["victory"],
    "actions": 0,
    "cards": 0, 
    "buys": 0, 
    "money": 0,
    "v tokens": 0,
    "v points": 3,
    "treasure": 0
  },

  "province" : {
    "cost": 8,
    "pcost": 0,
    "supply": 12,  
    "type" : ["victory"],
    "actions": 0,
    "cards": 0, 
    "buys": 0, 
    "money": 0,
    "v tokens": 0,
    "v points": 6,
    "treasure": 0
  },

  "colony" : {
    "cost": 11,
    "pcost": 0,
    "supply": 12,  
    "type" : ["victory"],
    "actions": 0,
    "cards": 0, 
    "buys": 0, 
    "money": 0,
    "v tokens": 0,
    "v points": 10,
    "treasure": 0
  },

  "curse" : {
    "cost": 0,
    "pcost": 0,
    "supply": 30,  
    "type" : ["curse"],
    "actions": 0,
    "cards": 0, 
    "buys": 0, 
    "money": 0,
    "v tokens": 0,
    "v points": -1,
    "treasure": 0
  }
}